<svg width="48" height="48" viewBox="0 0 48 48" fill="none" xmlns="http://www.w3.org/2000/svg">
<path d="M36.1062 30.795C36.5515 30.1292 37.49 30.1775 38 30.795L40.7247 33.9711C40.9022 34.186 40.9993 34.4562 40.9993 34.7351V44.4616C40.9993 45.1234 40.4639 45.6599 39.8033 45.6599H28.4051C27.4485 45.6599 26.879 44.5907 27.4115 43.7946L36.1062 30.795Z" fill="#96BEF2"/>
<path d="M7 4.19564C7 3.53531 7.53162 3 8.18742 3H36.9254C37.5812 3 38.1129 3.53531 38.1129 4.19564V30.6114C38.1129 30.912 38.0004 31.2015 37.798 31.4224L35.4489 33.9849C35.2464 34.2057 35.134 34.4953 35.134 34.7958V44.4643C35.134 45.1246 34.6023 45.6599 33.9466 45.6599H8.18742C7.53162 45.6599 7 45.1246 7 44.4643V4.19564Z" fill="#002EA6"/>
<path fill-rule="evenodd" clip-rule="evenodd" d="M13.9991 2.99988H8.18644C7.53065 2.99988 6.99902 3.53518 6.99902 4.19552V44.4641C6.99902 45.1245 7.53065 45.6598 8.18644 45.6598H33.9456C34.6014 45.6598 35.133 45.1245 35.133 44.4641V34.7957C35.133 34.4951 35.2454 34.2056 35.4479 33.9847L37.797 31.4223C37.9368 31.2697 38.0337 31.0845 38.0803 30.8854L13.9991 2.99988Z" fill="#0078DA"/>
<path d="M15.9 19.6V23.3H22.38V25.9H15.9V31H12.66V17H23.24V19.6H15.9ZM34.5334 25.22H31.0534V28.62H28.4734V25.22H25.0134V22.78H28.4734V19.38H31.0534V22.78H34.5334V25.22Z" fill="white"/>
</svg>
