<svg width="32" height="32" viewBox="0 0 32 32" fill="none" xmlns="http://www.w3.org/2000/svg">
<path d="M17.8628 27.996V17.068H21.5495L22.0975 12.7893H17.8628V10.064C17.8628 8.82932 18.2068 7.98398 19.9788 7.98398H22.2241V4.16931C21.1316 4.05224 20.0335 3.99571 18.9348 3.99998C15.6761 3.99998 13.4388 5.98931 13.4388 9.64132V12.7813H9.77612V17.06H13.4468V27.996H17.8628Z" fill="#002EA6"/>
</svg>
