<?xml version="1.0" standalone="no"?>
<!DOCTYPE svg PUBLIC "-//W3C//DTD SVG 20010904//EN"
 "http://www.w3.org/TR/2001/REC-SVG-20010904/DTD/svg10.dtd">
<svg version="1.0" xmlns="http://www.w3.org/2000/svg"
 width="928.000000pt" height="928.000000pt" viewBox="0 0 928.000000 928.000000"
 preserveAspectRatio="xMidYMid meet">
<metadata>
Created by potrace 1.11, written by Peter Selinger 2001-2013
</metadata>
<g transform="translate(0.000000,928.000000) scale(0.100000,-0.100000)"
fill="#000000" stroke="none">
<path d="M4907 9194 c-1 -1 -51 -5 -112 -8 -106 -6 -159 -11 -235 -22 -19 -3
-42 -5 -50 -6 -8 0 -33 -4 -55 -8 -22 -5 -58 -11 -80 -14 -22 -4 -47 -8 -55
-11 -8 -2 -27 -6 -43 -9 -15 -3 -35 -7 -45 -10 -9 -3 -28 -7 -42 -10 -14 -2
-74 -18 -135 -36 -60 -17 -117 -33 -125 -35 -8 -2 -53 -18 -100 -35 -47 -18
-98 -37 -115 -42 -16 -6 -36 -15 -42 -21 -7 -5 -13 -7 -13 -3 0 3 -26 -8 -59
-24 -32 -17 -66 -30 -75 -30 -9 0 -16 -4 -16 -10 0 -5 -12 -13 -26 -16 -22 -6
-250 -128 -329 -177 -85 -53 -310 -209 -325 -227 -3 -4 -14 -13 -26 -21 -86
-58 -335 -296 -450 -429 -22 -25 -43 -50 -49 -56 -5 -6 -23 -28 -40 -49 -16
-21 -40 -49 -52 -63 -13 -14 -23 -28 -23 -31 0 -3 -10 -17 -23 -31 -12 -14
-31 -39 -42 -56 -11 -18 -39 -60 -62 -94 -24 -34 -43 -64 -43 -66 0 -3 -13
-25 -30 -49 -16 -24 -30 -48 -30 -53 0 -6 -3 -12 -7 -14 -5 -1 -17 -21 -28
-43 -11 -22 -24 -43 -30 -47 -23 -17 16 -7 49 13 20 12 36 17 36 12 0 -7 -44
-32 -130 -72 -19 -9 -38 -20 -41 -24 -3 -5 -8 -7 -10 -6 -2 2 -15 -4 -29 -13
-14 -8 -50 -30 -80 -49 -30 -18 -79 -50 -108 -71 -28 -21 -52 -36 -52 -33 0 4
-6 0 -13 -7 -8 -7 -26 -22 -42 -33 -27 -20 -179 -140 -202 -160 -173 -151
-316 -294 -413 -414 -19 -23 -52 -62 -72 -84 -21 -23 -38 -45 -38 -48 0 -3 -9
-17 -21 -30 -32 -37 -199 -287 -199 -298 0 -5 -6 -16 -14 -24 -23 -22 -150
-271 -206 -402 -41 -95 -127 -319 -132 -345 0 -3 -2 -9 -4 -15 -7 -21 -45
-161 -50 -185 -3 -14 -10 -43 -16 -65 -6 -22 -12 -47 -13 -55 -2 -13 -16 -88
-29 -156 -2 -12 -7 -45 -11 -75 -3 -30 -9 -67 -11 -84 -13 -78 -26 -292 -26
-426 0 -131 14 -384 22 -384 0 0 3 -31 5 -68 3 -38 7 -73 11 -78 3 -5 7 -24 9
-42 6 -59 41 -231 61 -302 2 -5 5 -20 8 -31 19 -86 103 -335 154 -459 48 -116
193 -407 212 -425 3 -3 11 -16 18 -30 15 -31 28 -53 69 -111 18 -26 33 -50 33
-53 0 -4 4 -12 10 -19 47 -57 60 -76 60 -86 0 -6 3 -11 8 -11 4 0 18 -17 32
-37 14 -21 32 -45 40 -54 8 -9 23 -27 34 -40 10 -13 42 -51 70 -84 28 -33 55
-66 61 -73 35 -44 275 -274 346 -332 56 -46 121 -98 134 -108 6 -4 26 -19 45
-33 62 -46 198 -139 204 -139 3 0 24 -13 48 -29 44 -29 88 -55 167 -97 24 -13
51 -30 59 -36 8 -7 17 -12 18 -11 2 1 37 -14 78 -33 41 -18 79 -34 85 -34 6 0
11 -4 11 -10 0 -5 8 -10 18 -10 10 0 22 -4 27 -8 6 -4 35 -17 65 -29 30 -11
84 -32 120 -46 36 -13 79 -28 95 -32 35 -10 35 -10 55 -18 14 -5 147 -43 188
-52 9 -3 37 -9 62 -16 52 -12 85 -19 120 -24 14 -2 25 -4 25 -5 0 -2 35 -9 75
-15 19 -3 46 -7 60 -9 26 -4 100 -14 160 -21 111 -13 466 -25 484 -16 5 2 27
5 50 6 23 1 55 5 71 8 21 5 24 5 10 -1 -19 -9 -19 -9 5 -17 14 -4 27 -11 30
-15 15 -21 337 -196 353 -192 4 1 7 -2 7 -8 0 -5 4 -10 9 -10 5 0 30 -10 57
-22 27 -12 52 -21 57 -20 4 1 7 -2 7 -8 0 -5 6 -10 14 -10 8 0 45 -13 82 -29
90 -37 107 -44 119 -46 6 -2 46 -15 90 -30 126 -42 362 -101 485 -120 19 -3
42 -7 50 -10 8 -2 40 -6 71 -10 31 -3 67 -8 79 -10 101 -19 579 -26 715 -10
39 4 86 9 105 10 19 2 35 4 35 5 0 1 14 3 30 5 33 4 95 14 135 20 14 3 39 7
55 9 34 6 41 7 140 31 39 9 78 18 88 20 9 2 21 6 25 9 5 3 22 7 38 10 16 3 76
22 134 41 58 20 112 38 120 40 16 4 122 47 180 73 19 8 37 16 40 17 57 20 303
146 308 158 2 4 10 7 17 7 8 0 21 7 29 16 9 8 16 13 16 9 0 -3 15 5 33 19 19
14 37 23 40 19 4 -3 7 -2 7 4 0 5 16 18 35 29 19 10 35 23 35 28 0 5 3 7 6 3
3 -3 11 -1 18 4 6 6 50 38 97 72 115 83 148 109 264 210 63 55 247 237 306
302 58 66 177 213 211 263 18 26 40 56 50 66 10 11 18 25 18 32 0 7 3 14 8 16
11 5 52 66 52 78 0 5 4 10 9 10 5 0 11 8 15 18 3 9 20 40 37 67 41 64 165 302
174 335 4 14 11 27 14 30 6 4 85 199 106 260 1 3 4 12 8 20 11 28 66 208 71
231 2 13 7 31 10 39 3 8 8 26 10 40 3 14 16 77 30 141 14 64 27 131 28 149 1
17 6 34 10 36 5 3 6 9 3 14 -3 5 -1 38 5 73 24 151 33 525 17 707 -4 41 -9
104 -12 140 -3 36 -8 72 -10 80 -3 8 -7 38 -10 65 -4 28 -8 61 -11 75 -3 14
-10 45 -15 70 -22 113 -70 296 -100 385 -74 216 -172 453 -193 467 -6 4 -8 8
-4 8 9 0 -81 173 -129 248 -18 29 -33 57 -33 62 0 6 -5 10 -11 10 -5 0 -7 5
-4 10 3 6 2 10 -4 10 -6 0 -17 16 -26 35 -9 19 -23 39 -31 46 -8 6 -14 16 -14
21 0 5 -6 16 -12 23 -50 56 -82 108 -85 139 -2 17 -5 72 -8 121 -8 144 -35
322 -81 540 -14 69 -18 85 -54 205 -17 58 -32 110 -33 117 -2 7 -6 16 -10 19
-4 4 -7 18 -7 31 0 12 -4 23 -10 23 -5 0 -10 7 -10 16 0 26 -44 137 -114 286
-25 54 -46 99 -46 101 0 26 -271 467 -291 475 -5 2 -9 9 -9 16 0 7 -9 21 -20
31 -11 10 -20 21 -20 25 0 4 -11 20 -25 36 -13 16 -43 52 -66 79 -107 131
-231 261 -365 385 -60 55 -148 128 -229 189 -22 17 -45 34 -50 39 -27 22 -223
152 -229 152 -4 0 -12 5 -19 10 -34 29 -391 220 -411 220 -3 0 -29 11 -58 24
-45 20 -102 42 -193 76 -11 4 -24 8 -30 10 -5 1 -23 7 -40 14 -16 7 -32 13
-35 13 -3 0 -36 10 -75 21 -144 43 -255 68 -395 92 -36 6 -76 13 -90 15 -57
11 -179 24 -290 31 -76 6 -339 11 -343 8z m-1359 -1468 c3 -3 -13 -6 -36 -6
-23 0 -42 4 -42 9 0 9 68 6 78 -3z m202 -4 c0 -4 -43 -7 -95 -7 -57 0 -95 4
-95 10 0 6 36 9 95 7 52 -2 95 -6 95 -10z m-291 4 c-3 -4 -55 -8 -115 -11 -60
-3 -127 -8 -149 -11 -22 -2 -58 -7 -80 -10 -22 -2 -53 -7 -69 -10 -17 -4 -26
-2 -22 4 3 5 59 15 123 22 65 6 125 13 133 14 40 5 184 7 179 2z m321 -6 c0
-5 -2 -10 -4 -10 -3 0 -8 5 -11 10 -3 6 -1 10 4 10 6 0 11 -4 11 -10z m40 -2
c0 -4 -7 -8 -15 -8 -8 0 -15 4 -15 8 0 5 7 9 15 9 8 0 15 -4 15 -9z m180 -13
c14 -2 31 -3 38 -4 6 -1 12 -6 12 -12 0 -5 -4 -8 -9 -5 -5 3 -37 9 -72 12 -35
3 -82 10 -104 15 -36 7 29 4 135 -6z m-1005 -24 c-11 -5 -44 -11 -74 -15 -30
-4 -63 -12 -73 -17 -11 -6 -18 -6 -18 0 0 11 18 17 70 26 19 3 35 7 36 8 2 1
20 3 41 4 28 1 33 0 18 -6z m1205 -7 c19 -3 70 -14 114 -25 43 -10 81 -19 84
-19 3 0 3 -3 0 -6 -3 -3 -34 2 -68 11 -35 9 -75 18 -89 20 -14 2 -37 6 -51 9
-14 3 -47 9 -75 12 -27 3 -52 8 -55 11 -5 5 75 -2 140 -13z m-1380 -22 c0 -5
-6 -9 -12 -9 -13 -1 -110 -25 -155 -39 -13 -3 -23 -2 -23 3 0 5 6 10 13 11 6
1 46 10 87 21 91 23 90 23 90 13z m1707 -55 c7 0 10 -3 8 -7 -5 -8 -125 22
-125 31 0 3 24 0 53 -8 28 -8 57 -15 64 -16z m-1907 9 c0 -3 -4 -8 -10 -11 -5
-3 -10 -1 -10 4 0 6 5 11 10 11 6 0 10 -2 10 -4z m-30 -16 c0 -5 -3 -9 -7 -8
-9 3 -68 -14 -151 -43 -60 -22 -62 -22 -62 -11 0 4 28 16 63 25 34 10 78 25
97 32 42 17 60 18 60 5z m2014 -13 c3 4 6 1 6 -6 0 -8 -6 -11 -16 -7 -9 3 -22
6 -30 6 -8 0 -14 4 -14 10 0 6 9 6 24 0 13 -5 27 -6 30 -3z m146 -54 c8 -4 18
-7 22 -7 3 -1 10 -5 15 -10 9 -10 -4 -7 -99 26 -38 13 -68 26 -68 29 0 6 70
-15 130 -38z m-2392 -9 c-4 -3 -12 -7 -20 -8 -7 -2 -26 -8 -42 -15 -16 -6 -31
-10 -33 -7 -6 6 31 25 56 29 11 2 24 6 27 10 4 4 10 5 12 2 3 -3 3 -8 0 -11z
m2517 -38 c30 -14 55 -28 55 -31 0 -3 -3 -4 -7 -2 -16 8 -81 37 -104 46 -13 5
-19 10 -12 10 7 1 37 -10 68 -23z m-2625 6 c0 -7 -27 -21 -80 -40 -14 -5 -27
-10 -30 -10 -3 0 -36 -16 -74 -36 -75 -39 -76 -40 -76 -28 0 5 24 19 53 32 42
19 194 85 205 89 1 1 2 -2 2 -7z m2720 -47 c13 0 110 -51 110 -57 0 -4 -20 3
-44 17 -24 13 -46 21 -50 18 -3 -4 -6 -1 -6 5 0 7 -3 11 -7 11 -19 -3 -33 2
-33 12 0 6 5 7 13 2 6 -4 14 -8 17 -8z m160 -75 c15 -11 29 -17 32 -14 3 2 11
-2 18 -11 11 -13 10 -14 -6 -8 -25 9 -84 44 -84 49 0 8 13 3 40 -16z m130 -67
c27 -16 50 -31 50 -35 0 -6 -95 45 -109 58 -12 12 15 1 59 -23z m90 -54 c0 -5
5 -9 11 -9 11 0 95 -55 117 -77 27 -26 0 -12 -52 27 -29 22 -57 40 -63 40 -5
0 -18 9 -28 20 -17 18 -17 20 -2 14 9 -3 17 -10 17 -15z m507 -85 c-3 -3 -12
-4 -19 -1 -8 3 -5 6 6 6 11 1 17 -2 13 -5z m958 -154 c3 -6 -1 -7 -9 -4 -18 7
-21 14 -7 14 6 0 13 -4 16 -10z m160 -60 c3 -6 -1 -7 -9 -4 -18 7 -21 14 -7
14 6 0 13 -4 16 -10z m110 -48 c-3 -3 -11 0 -18 7 -9 10 -8 11 6 5 10 -3 15
-9 12 -12z m-261 -1368 c3 -8 2 -12 -4 -9 -6 3 -10 10 -10 16 0 14 7 11 14 -7z
m23 -59 c0 -8 -4 -12 -9 -9 -5 3 -6 10 -3 15 9 13 12 11 12 -6z m41 -120 c-3
-3 -9 2 -12 12 -6 14 -5 15 5 6 7 -7 10 -15 7 -18z m26 -71 c5 -14 4 -15 -9
-4 -17 14 -19 20 -6 20 5 0 12 -7 15 -16z m20 -70 c3 -8 2 -12 -4 -9 -6 3 -10
10 -10 16 0 14 7 11 14 -7z m14 -49 c-3 -3 -9 2 -12 12 -6 14 -5 15 5 6 7 -7
10 -15 7 -18z m9 -37 c-3 -8 -6 -5 -6 6 -1 11 2 17 5 13 3 -3 4 -12 1 -19z
m10 -40 c-3 -8 -6 -5 -6 6 -1 11 2 17 5 13 3 -3 4 -12 1 -19z m23 -58 c0 -5
-4 -10 -10 -10 -5 0 -10 5 -10 10 0 6 5 10 10 10 6 0 10 -4 10 -10z m24 -119
c8 -45 -3 -33 -14 14 -5 21 -5 34 -1 29 5 -5 11 -24 15 -43z m15 -90 c5 -24 6
-39 1 -35 -8 10 -25 92 -16 84 2 -3 9 -25 15 -49z m14 -71 c3 -11 1 -18 -4
-14 -5 3 -9 12 -9 20 0 20 7 17 13 -6z m4 -52 c-3 -8 -6 -5 -6 6 -1 11 2 17 5
13 3 -3 4 -12 1 -19z m16 -75 c3 -24 2 -43 -2 -43 -4 0 -8 19 -10 42 -1 23 -5
46 -8 52 -4 7 -3 8 4 1 6 -5 13 -29 16 -52z m9 -89 c2 -19 1 -37 -2 -39 -3 -2
-7 14 -8 36 -3 49 4 52 10 3z m5 -69 c0 -8 -4 -12 -9 -9 -4 3 -8 9 -8 15 0 5
4 9 8 9 5 0 9 -7 9 -15z m5 -60 c2 -19 1 -35 -3 -35 -4 0 -9 16 -11 35 -2 19
-1 35 3 35 4 0 9 -16 11 -35z m5 -111 c1 -36 -1 -63 -4 -60 -9 8 -12 126 -4
126 3 0 7 -30 8 -66z m1 -109 c1 -19 -2 -35 -6 -35 -4 0 -7 16 -7 35 -1 46 11
46 13 0z m0 -75 c-1 -16 -4 -30 -7 -30 -3 0 -7 14 -7 30 -1 17 2 30 6 30 5 0
8 -13 8 -30z m-1 -55 c0 -8 -4 -15 -9 -15 -4 0 -8 7 -8 15 0 8 4 15 8 15 5 0
9 -7 9 -15z m-3 -55 c-1 -44 -14 -50 -14 -7 0 21 3 37 8 37 4 0 7 -14 6 -30z
m-10 -117 c-4 -60 -8 -94 -19 -168 -1 -11 -3 -30 -4 -42 0 -13 -6 -23 -12 -23
-5 0 -8 3 -6 8 8 12 30 201 31 255 0 20 3 37 8 37 4 0 5 -30 2 -67z m-29 -255
c-2 -7 -12 -55 -21 -105 -9 -51 -20 -93 -24 -93 -9 0 -8 11 2 45 4 11 12 53
18 93 7 39 16 72 21 72 4 0 6 -6 4 -12z m-61 -295 c-13 -49 -26 -97 -28 -108
-3 -11 -21 -69 -41 -130 -20 -60 -38 -114 -39 -120 -3 -11 -21 -56 -35 -90 -5
-11 -19 -45 -31 -75 -43 -105 -125 -269 -137 -274 -7 -3 10 39 37 92 57 111
141 312 132 312 -4 0 -2 4 3 8 9 6 69 175 82 230 6 24 10 37 16 52 4 8 14 44
22 80 9 36 18 72 20 80 2 8 4 18 4 23 1 4 5 7 10 7 5 0 -2 -39 -15 -87z m-340
-804 c-7 -12 -222 -119 -239 -119 -5 0 46 29 115 63 69 35 126 64 128 65 2 1
0 -3 -4 -9z m-3157 -45 c-3 -3 -12 -4 -19 -1 -8 3 -5 6 6 6 11 1 17 -2 13 -5z
m79 -39 c16 -8 24 -15 18 -15 -7 0 -25 7 -40 15 -16 8 -24 15 -18 15 7 0 25
-7 40 -15z m74 -37 c0 -5 -9 -4 -20 2 -11 6 -20 12 -20 14 0 2 9 2 20 -1 11
-3 20 -9 20 -15z m100 -40 c0 -4 -18 1 -40 11 -58 26 -62 34 -7 14 26 -9 47
-21 47 -25z m2645 34 c-22 -18 -292 -115 -356 -127 -10 -2 -27 -9 -38 -15 -12
-6 -21 -8 -21 -4 0 3 -7 1 -15 -6 -10 -9 -15 -9 -15 -1 0 6 5 12 10 12 20 3
25 4 36 11 6 4 22 9 35 11 41 8 147 43 259 86 114 43 119 45 105 33z m-2550
-64 c28 -11 56 -20 63 -21 6 0 12 -5 12 -10 0 -5 -8 -6 -17 -2 -10 4 -39 15
-64 25 -48 18 -105 49 -64 35 11 -4 43 -16 70 -27z m190 -63 c39 -10 74 -22
80 -26 14 -14 -8 -11 -49 6 -20 9 -41 13 -46 10 -5 -3 -11 -1 -15 5 -3 5 -14
10 -24 10 -9 0 -26 7 -37 16 -19 15 -19 15 1 6 11 -5 52 -17 90 -27z m1904
-29 c-10 -9 -149 -43 -149 -36 0 7 33 17 89 27 14 2 32 8 40 13 15 8 30 5 20
-4z m-1716 -26 c5 -4 -14 -3 -42 3 -28 5 -51 13 -51 17 0 9 80 -9 93 -20z
m117 -19 c80 -16 94 -20 88 -27 -5 -4 -44 3 -165 31 -13 3 -23 10 -23 16 0 6
6 6 18 1 9 -5 46 -15 82 -21z m1407 -2 c-10 -6 -30 -12 -45 -14 -15 -2 -40 -6
-57 -9 -16 -3 -50 -8 -75 -11 -25 -4 -64 -10 -88 -15 -23 -4 -45 -4 -48 1 -3
5 5 9 18 10 13 0 32 2 43 5 11 2 40 6 65 9 25 3 54 7 66 10 12 3 39 7 60 11
21 3 41 8 43 10 2 2 11 4 20 4 13 -1 13 -2 -2 -11z m-1237 -30 c25 -6 90 -13
145 -16 55 -2 111 -6 125 -8 14 -1 40 -3 58 -4 17 0 32 -5 32 -10 0 -6 -10 -8
-22 -5 -13 3 -66 7 -118 9 -79 4 -171 14 -262 28 -22 4 -36 17 -17 17 8 0 34
-5 59 -11z m910 -21 c0 -5 -15 -9 -32 -9 -66 -2 -95 -6 -108 -14 -8 -5 -11 -3
-8 6 2 7 22 14 48 16 23 1 44 4 46 5 6 7 54 2 54 -4z m-310 -20 c0 -3 -52 -6
-115 -6 -63 0 -115 4 -115 7 0 4 52 7 115 7 63 -1 115 -4 115 -8z m147 6 c-9
-9 -137 -15 -137 -6 0 4 32 9 72 10 40 2 69 0 65 -4z m133 -968 c0 -2 -7 -7
-16 -10 -8 -3 -12 -2 -9 4 6 10 25 14 25 6z m-330 -180 c0 -2 -7 -7 -16 -10
-8 -3 -12 -2 -9 4 6 10 25 14 25 6z m-100 -40 c0 -2 -7 -7 -16 -10 -8 -3 -12
-2 -9 4 6 10 25 14 25 6z m-90 -40 c0 -2 -7 -7 -16 -10 -8 -3 -12 -2 -9 4 6
10 25 14 25 6z m-503 -162 c-3 -3 -12 -4 -19 -1 -8 3 -5 6 6 6 11 1 17 -2 13
-5z m-83 -12 c3 -5 -1 -9 -9 -9 -8 0 -12 4 -9 9 3 4 7 8 9 8 2 0 6 -4 9 -8z
m-34 -6 c0 -2 -7 -7 -16 -10 -8 -3 -12 -2 -9 4 6 10 25 14 25 6z m-103 -22
c-3 -3 -12 -4 -19 -1 -8 3 -5 6 6 6 11 1 17 -2 13 -5z m-162 -23 c-9 -8 -36
-10 -30 -2 2 4 11 8 20 8 8 0 13 -3 10 -6z m-48 -7 c-3 -3 -12 -4 -19 -1 -8 3
-5 6 6 6 11 1 17 -2 13 -5z"/>
</g>
</svg>
