<svg width="48" height="48" viewBox="0 0 48 48" fill="none" xmlns="http://www.w3.org/2000/svg">
<rect x="4" y="37" width="32" height="32" rx="2" transform="rotate(-90 4 37)" fill="#002EA6"/>
<rect x="24" y="41" width="21" height="21" rx="2" transform="rotate(-90 24 41)" fill="#96BEF2"/>
<path fill-rule="evenodd" clip-rule="evenodd" d="M36 20L36 35C36 36.1046 35.1046 37 34 37H24V22C24 20.8954 24.8954 20 26 20H36Z" fill="#0078DA"/>
<path d="M14 29.5V15C14 13.8954 14.8954 13 16 13H28" stroke="white" stroke-width="2.8"/>
<path d="M31.5323 12.6143C31.7748 12.8143 31.7748 13.1857 31.5323 13.3857L27.5681 16.6553C27.242 16.9243 26.75 16.6923 26.75 16.2696L26.75 9.73039C26.75 9.30766 27.242 9.07569 27.5681 9.34467L31.5323 12.6143Z" fill="white"/>
</svg>
