<svg width="19" height="20" viewBox="0 0 19 20" fill="none" xmlns="http://www.w3.org/2000/svg">
<circle cx="8.19697" cy="8.19697" r="7.29697" stroke="#484953" stroke-width="1.8"/>
<path d="M13.2627 14.2416L17.0007 18.3605" stroke="#484953" stroke-width="3"/>
</svg>
