<svg id="Слой_1" data-name="Слой 1" xmlns="http://www.w3.org/2000/svg" viewBox="0 0 4.94 9.91">
  <defs>
    <style>
      .cls-1 {
        fill: none;
        stroke: #484954;
        stroke-width: 1.35px;
      }
    </style>
  </defs>
  <title>arrow-icon</title>
  <path class="cls-1" d="M.5,9.46,4,5.63A1,1,0,0,0,4,4.28L.5.46"/>
</svg>
