<svg width="48" height="48" viewBox="0 0 48 48" fill="none" xmlns="http://www.w3.org/2000/svg">
<rect x="3" y="42.9551" width="31.9556" height="42" rx="2" transform="rotate(-90 3 42.9551)" fill="#0078DA"/>
<path d="M12.43 28.02V30.61H16.966V32.43H12.43V36H10.162V26.2H17.568V28.02H12.43ZM19.1034 26.2H23.5554C24.6194 26.2 25.5574 26.4053 26.3694 26.816C27.1907 27.2173 27.8254 27.7867 28.2734 28.524C28.7307 29.2613 28.9594 30.12 28.9594 31.1C28.9594 32.08 28.7307 32.9387 28.2734 33.676C27.8254 34.4133 27.1907 34.9873 26.3694 35.398C25.5574 35.7993 24.6194 36 23.5554 36H19.1034V26.2ZM23.4434 34.138C24.4234 34.138 25.2027 33.8673 25.7814 33.326C26.3694 32.7753 26.6634 32.0333 26.6634 31.1C26.6634 30.1667 26.3694 29.4293 25.7814 28.888C25.2027 28.3373 24.4234 28.062 23.4434 28.062H21.3714V34.138H23.4434ZM33.8898 36.168C33.1151 36.168 32.3638 36.0653 31.6358 35.86C30.9171 35.6453 30.3385 35.37 29.8998 35.034L30.6698 33.326C31.0898 33.634 31.5891 33.8813 32.1678 34.068C32.7465 34.2547 33.3251 34.348 33.9038 34.348C34.5478 34.348 35.0238 34.2547 35.3318 34.068C35.6398 33.872 35.7938 33.6153 35.7938 33.298C35.7938 33.0647 35.7005 32.8733 35.5138 32.724C35.3365 32.5653 35.1031 32.4393 34.8138 32.346C34.5338 32.2527 34.1511 32.15 33.6658 32.038C32.9191 31.8607 32.3078 31.6833 31.8318 31.506C31.3558 31.3287 30.9451 31.044 30.5998 30.652C30.2638 30.26 30.0958 29.7373 30.0958 29.084C30.0958 28.5147 30.2498 28.0013 30.5578 27.544C30.8658 27.0773 31.3278 26.7087 31.9438 26.438C32.5691 26.1673 33.3298 26.032 34.2258 26.032C34.8511 26.032 35.4625 26.1067 36.0598 26.256C36.6571 26.4053 37.1798 26.62 37.6278 26.9L36.9278 28.622C36.0225 28.1087 35.1171 27.852 34.2118 27.852C33.5771 27.852 33.1058 27.9547 32.7978 28.16C32.4991 28.3653 32.3498 28.636 32.3498 28.972C32.3498 29.308 32.5225 29.56 32.8678 29.728C33.2225 29.8867 33.7591 30.0453 34.4778 30.204C35.2245 30.3813 35.8358 30.5587 36.3118 30.736C36.7878 30.9133 37.1938 31.1933 37.5298 31.576C37.8751 31.9587 38.0478 32.4767 38.0478 33.13C38.0478 33.69 37.8891 34.2033 37.5718 34.67C37.2638 35.1273 36.7971 35.4913 36.1718 35.762C35.5465 36.0327 34.7858 36.168 33.8898 36.168Z" fill="white"/>
<path d="M7 6H34V21H7V6Z" fill="#002EA6"/>
<rect x="7" y="3" width="27" height="8" fill="#96BEF2"/>
</svg>
