<svg width="32" height="32" viewBox="0 0 32 32" fill="none" xmlns="http://www.w3.org/2000/svg">
<path d="M27.9285 11.0733C27.9138 10.0639 27.7271 9.06261 27.3698 8.11861C26.7445 6.50661 25.4711 5.23194 23.8591 4.60794C22.9271 4.25728 21.9418 4.06928 20.9445 4.04794C19.6618 3.99061 19.2551 3.97461 15.9991 3.97461C12.7431 3.97461 12.3258 3.97461 11.0525 4.04794C10.0565 4.06928 9.07112 4.25728 8.13912 4.60794C6.52712 5.23194 5.25245 6.50661 4.62845 8.11861C4.27778 9.05061 4.08845 10.0359 4.06978 11.0319C4.01245 12.3159 3.99512 12.7226 3.99512 15.9786C3.99512 19.2346 3.99512 19.6506 4.06978 20.9253C4.08978 21.9226 4.27778 22.9066 4.62845 23.8413C5.25378 25.4519 6.52712 26.7266 8.14045 27.3506C9.06845 27.7133 10.0538 27.9186 11.0538 27.9506C12.3378 28.0079 12.7445 28.0253 16.0005 28.0253C19.2565 28.0253 19.6738 28.0253 20.9471 27.9506C21.9431 27.9306 22.9285 27.7426 23.8618 27.3919C25.4738 26.7666 26.7471 25.4919 27.3725 23.8813C27.7231 22.9479 27.9111 21.9639 27.9311 20.9653C27.9885 19.6826 28.0058 19.2759 28.0058 16.0186C28.0031 12.7626 28.0031 12.3493 27.9285 11.0733ZM15.9911 22.1359C12.5858 22.1359 9.82712 19.3773 9.82712 15.9719C9.82712 12.5666 12.5858 9.80794 15.9911 9.80794C19.3938 9.80794 22.1551 12.5666 22.1551 15.9719C22.1551 19.3773 19.3938 22.1359 15.9911 22.1359ZM22.4005 11.0173C21.6045 11.0173 20.9631 10.3746 20.9631 9.57994C20.9631 8.78528 21.6045 8.14261 22.4005 8.14261C23.1938 8.14261 23.8365 8.78528 23.8365 9.57994C23.8365 10.3746 23.1938 11.0173 22.4005 11.0173Z" fill="#002EA6"/>
<path d="M15.9913 19.9761C18.2027 19.9761 19.9953 18.1835 19.9953 15.9721C19.9953 13.7608 18.2027 11.9681 15.9913 11.9681C13.78 11.9681 11.9873 13.7608 11.9873 15.9721C11.9873 18.1835 13.78 19.9761 15.9913 19.9761Z" fill="#002EA6"/>
</svg>
