<svg width="140" height="140" viewBox="0 0 140 140" fill="none" xmlns="http://www.w3.org/2000/svg">
<path d="M70.0022 0C42.0446 0 19.2995 22.7451 19.2995 50.7024C19.2995 85.3984 64.6735 136.334 66.6053 138.485C68.4198 140.506 71.5879 140.503 73.3991 138.485C75.331 136.334 120.705 85.3984 120.705 50.7024C120.704 22.7451 97.9596 0 70.0022 0ZM70.0022 76.2122C55.936 76.2122 44.4927 64.7686 44.4927 50.7024C44.4927 36.6362 55.9363 25.1929 70.0022 25.1929C84.0681 25.1929 95.5115 36.6365 95.5115 50.7027C95.5115 64.7689 84.0681 76.2122 70.0022 76.2122Z" fill="#002EA6"/>
</svg>
