<svg id="Слой_1" data-name="Слой 1" xmlns="http://www.w3.org/2000/svg" viewBox="0 0 19.6 14.92">
  <defs>
    <style>
      .cls-1 {
        fill: #1e3d91;
      }
    </style>
  </defs>
  <title>quate-icon</title>
  <path class="cls-1" d="M6.76,6.52A3.78,3.78,0,0,1,8.48,8.08a4.26,4.26,0,0,1,.64,2.36,4.33,4.33,0,0,1-1.28,3.24,4.51,4.51,0,0,1-3.28,1.24,4.51,4.51,0,0,1-3.28-1.24A4.33,4.33,0,0,1,0,10.44,7.26,7.26,0,0,1,.24,8.6,18,18,0,0,1,1.32,5.88L3.88,0H8.64Zm10.48,0A3.78,3.78,0,0,1,19,8.08a4.26,4.26,0,0,1,.64,2.36,4.33,4.33,0,0,1-1.28,3.24A4.51,4.51,0,0,1,15,14.92a4.51,4.51,0,0,1-3.28-1.24,4.33,4.33,0,0,1-1.28-3.24,7.26,7.26,0,0,1,.24-1.84A18,18,0,0,1,11.8,5.88L14.36,0h4.76Z"/>
</svg>
