<svg width="12" height="11" viewBox="0 0 12 11" fill="none" xmlns="http://www.w3.org/2000/svg">
<rect x="1.54443" y="0.333282" width="13.3333" height="1.33333" transform="rotate(41.1696 1.54443 0.333282)" fill="#D8D9DD"/>
<rect width="13.3333" height="1.33333" transform="matrix(-0.752764 0.65829 0.65829 0.752764 10.7034 0.333282)" fill="#D8D9DD"/>
</svg>
