<svg width="48" height="48" viewBox="0 0 48 48" fill="none" xmlns="http://www.w3.org/2000/svg">
<path d="M5 47C3.89543 47 3 46.1046 3 45L3 6C3 4.89543 3.89543 4 5 4L23.9961 4L30.4961 10.5L37 17V45C37 46.1046 36.1045 47 35 47H5Z" fill="#002EA6"/>
<path d="M13 44C11.8954 44 11 43.1046 11 42L11 3C11 1.89543 11.8954 1 13 1L31.9961 1L38.4961 7.5L45 14V42C45 43.1046 44.1045 44 43 44H13Z" fill="#96BEF2"/>
<path d="M33 10C33 11.6569 34.3431 13 36 13L35.0015 14L36.0039 13L45.0039 14L38.5 7.5L32 1L33 10Z" fill="#0078DA"/>
<path fill-rule="evenodd" clip-rule="evenodd" d="M11 42C11 43.1046 11.8954 44 13 44H37V17L30.4961 10.5L23.9961 4H11V42Z" fill="#0078DA"/>
<path d="M15 17H28M15 27H33M15 34H33" stroke="white" stroke-width="2.8"/>
</svg>
