<svg width="14" height="14" viewBox="0 0 14 14" fill="none" xmlns="http://www.w3.org/2000/svg">
<path d="M0.9 2C0.9 1.39249 1.39249 0.9 2 0.9H12C12.6075 0.9 13.1 1.39249 13.1 2V12C13.1 12.6075 12.6075 13.1 12 13.1H2C1.39249 13.1 0.9 12.6075 0.9 12V2Z" stroke="#002EA6" stroke-width="1.8"/>
<path d="M5 4H9.5C9.77614 4 10 4.22386 10 4.5V9" stroke="#002EA6" stroke-width="1.8"/>
<path d="M9.5 4.5L3.5 10.5" stroke="#002EA6" stroke-width="1.8"/>
</svg>
